Lab5
…
#Classify the states based on the given temperature criteria
temp_ave[, temp_ave_level := fifelse(temp_ave < 20, "low",
         fifelse(temp_ave >= 20 & temp_ave < 25, "Mid", "High"))]

met[, temp_ave := fcoalesce(temp, mean(temp, na.rm = TRUE)),
      by = STATE]

met_ldt <- lazy_dt(met, immutable = FALSE)
met_ldt %>%
  group_by(STATE, year, month, day) %>%
  mutate(
    temp_ave2 = coalesce(temp, mean(temp, na.rm = TRUE))
    ) %>% collect()

# A tibble: 2,377,343 × 34
# Groups:   STATE, year, month, day [1,488]
   USAFID  WBAN  year month   day  hour   min   lat   lon  elev wind.dir
    <int> <int> <int> <int> <int> <int> <int> <dbl> <dbl> <int>    <int>
 1 690150 93121  2019     8     1     0    56  34.3 -116.   696      220
 2 690150 93121  2019     8     1     1    56  34.3 -116.   696      230
 3 690150 93121  2019     8     1     2    56  34.3 -116.   696      230
 4 690150 93121  2019     8     1     3    56  34.3 -116.   696      210
 5 690150 93121  2019     8     1     4    56  34.3 -116.   696      120
 6 690150 93121  2019     8     1     5    56  34.3 -116.   696       NA
 7 690150 93121  2019     8     1     6    56  34.3 -116.   696      320
 8 690150 93121  2019     8     1     7    56  34.3 -116.   696       10
 9 690150 93121  2019     8     1     8    56  34.3 -116.   696      320
10 690150 93121  2019     8     1     9    56  34.3 -116.   696      350
# ℹ 2,377,333 more rows
# ℹ 23 more variables: wind.dir.qc <chr>, wind.type.code <chr>, wind.sp <dbl>,
#   wind.sp.qc <chr>, ceiling.ht <int>, ceiling.ht.qc <int>,
#   ceiling.ht.method <chr>, sky.cond <chr>, vis.dist <int>, vis.dist.qc <chr>,
#   vis.var <chr>, vis.var.qc <chr>, temp <dbl>, temp.qc <chr>,
#   dew.point <dbl>, dew.point.qc <chr>, atm.press <dbl>, atm.press.qc <int>,
#   rh <dbl>, CTRY <chr>, STATE <chr>, temp_ave <dbl>, temp_ave2 <dbl>
…
